Assignment 1
…
Find the average number of employees in each industry in New York

ny_avg_emp_ind <- inc_state_cc %>%
  filter(State==third) %>%
  group_by(Industry) %>%
  mutate(avg_emp_ind = mean(Employees)) %>% 
  arrange(Industry)

Example of a company in each NY Industry with its employee average

ny_avg_emp_ind[!duplicated(ny_avg_emp_ind$avg_emp_ind),]

# A tibble: 25 x 9
# Groups:   Industry [25]
    Rank Name    Growth_Rate  Revenue Industry Employees City  State avg_emp_ind
   <int> <fct>         <dbl>    <dbl> <fct>        <int> <fct> <fct>       <dbl>
 1    30 Sailth~       73.2   8100000 Adverti~        79 New ~ NY           58.4
 2   264 MSR Pr~       16.3   2400000 Busines~         4 New ~ NY         1492. 
 3  2877 Myriad~        1.19 22900000 Compute~        44 New ~ NY           44  
 4  1723 Spicer~        2.25  5600000 Constru~        20 Buff~ NY           61  
 5    26 BeenVe~       84.4  13700000 Consume~        17 New ~ NY          626. 
 6   232 Rethin~       18.3   4100000 Educati~        22 New ~ NY           59.9
 7   609 SmartW~        7.54 38800000 Energy         137 Ball~ NY          129. 
 8  4474 Sam Sc~        0.51 16800000 Enginee~        94 New ~ NY           53.5
 9  3661 Enviro~        0.81 45100000 Environ~       250 Syra~ NY          155  
10    48 Cinium~       53.6   5900000 Financi~        32 Rock~ NY          144. 
# ... with 15 more rows
…
